^C:\USERS\HADOOP\SOURCE\REPOS\BLACKJACK_VS\PONG\PONG\X64\DEBUG\MAIN.OBJ
/OUT:"C:\USERS\HADOOP\SOURCE\REPOS\BLACKJACK_VS\PONG\X64\DEBUG\PONG.EXE" /INCREMENTAL /NOLOGO /LIBPATH:"C:\SFML\SFML-2.4.2\LIB" "SFML-GRAPHICS-D.LIB" "SFML-WINDOW-D.LIB" "SFML-SYSTEM-D.LIB" KERNEL32.LIB USER32.LIB GDI32.LIB WINSPOOL.LIB COMDLG32.LIB ADVAPI32.LIB SHELL32.LIB OLE32.LIB OLEAUT32.LIB UUID.LIB ODBC32.LIB ODBCCP32.LIB KERNEL32.LIB USER32.LIB GDI32.LIB WINSPOOL.LIB COMDLG32.LIB ADVAPI32.LIB SHELL32.LIB OLE32.LIB OLEAUT32.LIB UUID.LIB ODBC32.LIB ODBCCP32.LIB /MANIFEST /MANIFESTUAC:"level='asInvoker' uiAccess='false'" /manifest:embed /DEBUG /PDB:"C:\USERS\HADOOP\SOURCE\REPOS\BLACKJACK_VS\PONG\X64\DEBUG\PONG.PDB" /SUBSYSTEM:CONSOLE /TLBID:1 /DYNAMICBASE /NXCOMPAT /IMPLIB:"C:\USERS\HADOOP\SOURCE\REPOS\BLACKJACK_VS\PONG\X64\DEBUG\PONG.LIB" /MACHINE:X64 X64\DEBUG\MAIN.OBJ
^C:\USERS\HADOOP\SOURCE\REPOS\BLACKJACK_VS\PONG\PONG\X64\DEBUG\BALL.OBJ|C:\USERS\HADOOP\SOURCE\REPOS\BLACKJACK_VS\PONG\PONG\X64\DEBUG\GAME.OBJ|C:\USERS\HADOOP\SOURCE\REPOS\BLACKJACK_VS\PONG\PONG\X64\DEBUG\MAIN.OBJ|C:\USERS\HADOOP\SOURCE\REPOS\BLACKJACK_VS\PONG\PONG\X64\DEBUG\PLAYER.OBJ
/OUT:"C:\USERS\HADOOP\SOURCE\REPOS\BLACKJACK_VS\PONG\X64\DEBUG\PONG.EXE" /INCREMENTAL /NOLOGO /LIBPATH:"C:\SFML\SFML-2.4.2\LIB" "SFML-GRAPHICS-D.LIB" "SFML-WINDOW-D.LIB" "SFML-SYSTEM-D.LIB" KERNEL32.LIB USER32.LIB GDI32.LIB WINSPOOL.LIB COMDLG32.LIB ADVAPI32.LIB SHELL32.LIB OLE32.LIB OLEAUT32.LIB UUID.LIB ODBC32.LIB ODBCCP32.LIB KERNEL32.LIB USER32.LIB GDI32.LIB WINSPOOL.LIB COMDLG32.LIB ADVAPI32.LIB SHELL32.LIB OLE32.LIB OLEAUT32.LIB UUID.LIB ODBC32.LIB ODBCCP32.LIB /MANIFEST /MANIFESTUAC:"level='asInvoker' uiAccess='false'" /manifest:embed /DEBUG /PDB:"C:\USERS\HADOOP\SOURCE\REPOS\BLACKJACK_VS\PONG\X64\DEBUG\PONG.PDB" /SUBSYSTEM:CONSOLE /TLBID:1 /DYNAMICBASE /NXCOMPAT /IMPLIB:"C:\USERS\HADOOP\SOURCE\REPOS\BLACKJACK_VS\PONG\X64\DEBUG\PONG.LIB" /MACHINE:X64 X64\DEBUG\BALL.OBJX64\DEBUG\GAME.OBJX64\DEBUG\MAIN.OBJX64\DEBUG\PLAYER.OBJ
